{
    "pagination": {
        "total": 100,
        "per_page": 10,
        "current_page": 1,
        "last_page": 10
    },
    "data": [
        {
            "id": 1,
            "name": "Salma Suyanto",
            "age": 45,
            "loan": 1000,
            "gender": {
                "id": 1,
                "name": "male"
            }
        },
        {
            "id": 2,
            "name": "Wulan Rosa",
            "age": 55,
            "loan": 800,
            "gender": {
                "id": 1,
                "name": "female"
            }
        }
    ]
}